Homework 6
…
  select(victim_age, victim_sex, city_state, race, status) %>% 
  mutate(status = as.factor(status)) %>% 
  filter(victim_sex != "Unknown") %>% 
  group_by(city_state) %>% 
  nest() %>% 
  mutate(models = map(data, ~glm(status ~ victim_age + race + victim_sex, data = .x, family = binomial))) %>%
  mutate(models_tidy = map(models, ~broom::tidy(.))) %>% 
  mutate(models_ci = map(models, ~broom::confint_tidy(.))) %>% 
  select(city_state, models_tidy, models_ci) %>% 
  unnest() %>% 
  mutate(OR = exp(estimate), OR.conf.low = exp(conf.low), OR.conf.high = exp(conf.high)) %>% 
  filter(term == "raceNon-White") %>% 
  select(city_state, starts_with("OR"))

## # A tibble: 47 x 4
##    city_state         OR OR.conf.low OR.conf.high
##    <chr>           <dbl>       <dbl>        <dbl>
##  1 Albuquerque, NM 1.36        0.826         2.24
##  2 Atlanta, GA     1.33        0.770         2.36
##  3 Baltimore, MD   2.27        1.61          3.20
##  4 Baton Rouge, LA 1.50        0.712         3.29
##  5 Birmingham, AL  0.962       0.570         1.63
##  6 Boston, MA      7.89        3.50         21.2 
##  7 Buffalo, NY     2.56        1.41          4.76
##  8 Charlotte, NC   1.79        1.05          3.19
##  9 Chicago, IL     1.78        1.36          2.32
## 10 Cincinnati, OH  3.14        1.85          5.56
## # ... with 37 more rows
…
